Wait list from scratch • simK
…
# lets create also an unique identifier for each patient
candidates$ID <- paste0('R', rownames(candidates))

candidates
#> # A tibble: 100 × 7
#>    A1    A2    B1    B2    DR1   DR2   ID   
#>    <chr> <chr> <chr> <chr> <chr> <chr> <chr>
#>  1 11    24    60    39    15    4     R1   
#>  2 2     11    13    62    12    4     R2   
#>  3 3     24    35    45    10    11    R3   
#>  4 33    33    44    51    13    3     R4   
#>  5 11    24    52    61    12    4     R5   
#>  6 2     24    38    61    15    15    R6   
#>  7 32    24    60    38    4     15    R7   
#>  8 24    32    54    52    8     15    R8   
#>  9 24    2     52    60    15    11    R9   
#> 10 26    3     61    35    9     13    R10  
#> # ℹ 90 more rows

Patients’ blood group can be added with abo() and their ages with function ages():

# we just have to define sample size and probabilities for A, AB, B and O groups (in this order)
candidates$bg <- abo(n = nrow(candidates), probs = c(0.4, 0.04, 0.06, 0.5))

# for patients' ages we define a trimmed normal distributed value with mean and sd
candidates$age <- ages(n = nrow(candidates), lower = 18, upper = 80, mean = 65, sd = 30)

# let's take a look at our transplant candidates
candidates
#> # A tibble: 100 × 9
#>    A1    A2    B1    B2    DR1   DR2   ID    bg      age
#>    <chr> <chr> <chr> <chr> <chr> <chr> <chr> <chr> <dbl>
#>  1 11    24    60    39    15    4     R1    O        48
#>  2 2     11    13    62    12    4     R2    A        58
#>  3 3     24    35    45    10    11    R3    O        67
#>  4 33    33    44    51    13    3     R4    A        69
#>  5 11    24    52    61    12    4     R5    B        79
#>  6 2     24    38    61    15    15    R6    O        27
#>  7 32    24    60    38    4     15    R7    A        44
#>  8 24    32    54    52    8     15    R8    A        52
#>  9 24    2     52    60    15    11    R9    A        76
#> 10 26    3     61    35    9     13    R10   O        77
#> # ℹ 90 more rows
…
candidates$cPRA <- cpra(n = nrow(candidates), probs = c(0.7, 0.1, 0.1, 0.1))

# and we can also classify those hipersensitised patients
candidates$hiper <- candidates$cPRA > 85

Time on dialysis (in months) is computed according to blood group and hipersensitation status:

candidates <- candidates |> 
  dplyr::rowwise() |>
  dplyr::mutate(dialysis = dial(hiper = hiper, bg = bg, seed.number = NA)) |>
  dplyr::ungroup()

candidates
#> # A tibble: 100 × 12
#>    A1    A2    B1    B2    DR1   DR2   ID    bg      age  cPRA hiper dialysis
#>    <chr> <chr> <chr> <chr> <chr> <chr> <chr> <chr> <dbl> <dbl> <lgl>    <dbl>
#>  1 11    24    60    39    15    4     R1    O        48     0 FALSE       66
#>  2 2     11    13    62    12    4     R2    A        58    73 FALSE       57
#>  3 3     24    35    45    10    11    R3    O        67     0 FALSE       90
#>  4 33    33    44    51    13    3     R4    A        69    37 FALSE       40
#>  5 11    24    52    61    12    4     R5    B        79    82 FALSE       23
#>  6 2     24    38    61    15    15    R6    O        27     0 FALSE       49
#>  7 32    24    60    38    4     15    R7    A        44    21 FALSE       40
#>  8 24    32    54    52    8     15    R8    A        52     0 FALSE       16
#>  9 24    2     52    60    15    11    R9    A        76     0 FALSE        2
#> 10 26    3     61    35    9     13    R10   O        77     0 FALSE       82
#> # ℹ 90 more rows

And we can finish it defining patients clinical urgent (if any):

# let´s asume we have 5% of candidates that are clinical urgent for transplantation
candidates$urgent <- sample(c(0,1), size = 100, replace = TRUE, prob = c(0.95,0.05))

# reording the columns
candidates |>
  dplyr::select(ID, bg, A1, A2, B1, B2, DR1, DR2, age, cPRA, hiper, dialysis, urgent)
#> # A tibble: 100 × 13
#>    ID    bg    A1    A2    B1    B2    DR1   DR2     age  cPRA hiper dialysis
#>    <chr> <chr> <chr> <chr> <chr> <chr> <chr> <chr> <dbl> <dbl> <lgl>    <dbl>
#>  1 R1    O     11    24    60    39    15    4        48     0 FALSE       66
#>  2 R2    A     2     11    13    62    12    4        58    73 FALSE       57
#>  3 R3    O     3     24    35    45    10    11       67     0 FALSE       90
#>  4 R4    A     33    33    44    51    13    3        69    37 FALSE       40
#>  5 R5    B     11    24    52    61    12    4        79    82 FALSE       23
#>  6 R6    O     2     24    38    61    15    15       27     0 FALSE       49
#>  7 R7    A     32    24    60    38    4     15       44    21 FALSE       40
#>  8 R8    A     24    32    54    52    8     15       52     0 FALSE       16
#>  9 R9    A     24    2     52    60    15    11       76     0 FALSE        2
#> 10 R10   O     26    3     61    35    9     13       77     0 FALSE       82
#> # ℹ 90 more rows
#> # ℹ 1 more variable: urgent <dbl>
…
