Donors from scratch • simK
…
# here we create a column with an unique identifier:
donors$ID <- paste0('D', rownames(donors))

donors
#> # A tibble: 100 × 7
#>    A1    A2    B1    B2    DR1   DR2   ID   
#>    <chr> <chr> <chr> <chr> <chr> <chr> <chr>
#>  1 2     24    35    61    14    11    D1   
#>  2 1     68    37    60    10    4     D2   
#>  3 3     1     35    7     13    11    D3   
#>  4 11    11    13    38    12    15    D4   
#>  5 2     33    35    75    4     12    D5   
#>  6 24    1     35    51    14    15    D6   
#>  7 24    24    61    52    14    15    D7   
#>  8 11    33    81    58    12    15    D8   
#>  9 11    68    38    44    4     7     D9   
#> 10 24    33    61    57    14    13    D10  
#> # ℹ 90 more rows

A column with donors blood group can be added with function abo(), we just have to give donors pool size and a vector with ABO genotypic frequencies (probs):

donors$bg <- abo(n = nrow(donors), probs = c(0.46, 0.03, 0.08, 0.43))

donors
#> # A tibble: 100 × 8
#>    A1    A2    B1    B2    DR1   DR2   ID    bg   
#>    <chr> <chr> <chr> <chr> <chr> <chr> <chr> <chr>
#>  1 2     24    35    61    14    11    D1    A    
#>  2 1     68    37    60    10    4     D2    O    
#>  3 3     1     35    7     13    11    D3    A    
#>  4 11    11    13    38    12    15    D4    O    
#>  5 2     33    35    75    4     12    D5    B    
#>  6 24    1     35    51    14    15    D6    A    
#>  7 24    24    61    52    14    15    D7    O    
#>  8 11    33    81    58    12    15    D8    B    
#>  9 11    68    38    44    4     7     D9    O    
#> 10 24    33    61    57    14    13    D10   A    
#> # ℹ 90 more rows

Vector on probs must be corresponde to A, AB, B and O probabilities (in that order).

And now we just have to add a vector with donors’ age with function ages():

donors$age <- ages(n = nrow(donors), lower = 18, upper = 80, mean = 55, sd = 25)

# and we can order 
donors |> dplyr::select(ID, bg, A1, A2, B1, B2, DR1, DR2, age)
#> # A tibble: 100 × 9
#>    ID    bg    A1    A2    B1    B2    DR1   DR2     age
#>    <chr> <chr> <chr> <chr> <chr> <chr> <chr> <chr> <dbl>
#>  1 D1    A     2     24    35    61    14    11       41
#>  2 D2    O     1     68    37    60    10    4        49
#>  3 D3    A     3     1     35    7     13    11       57
#>  4 D4    O     11    11    13    38    12    15       58
#>  5 D5    B     2     33    35    75    4     12       67
#>  6 D6    A     24    1     35    51    14    15       23
#>  7 D7    O     24    24    61    52    14    15       38
#>  8 D8    B     11    33    81    58    12    15       44
#>  9 D9    O     11    68    38    44    4     7        64
#> 10 D10   A     24    33    61    57    14    13       65
#> # ℹ 90 more rows
…
