Introduction to simK • simK
…
RRI when option uk = TRUE, Recipient Risk Index is copmputed as described by transplantr. To compute RRI, variables age, time on dialysis (in days) and the probability of being diabetic (obtained from prob_dm) are used. Also, we assumed all patients were on dialysis at time of listing.

HLA population origin can be defined from options: ‘PT’,‘API’,‘AFA’,‘CAU’ and ‘HIS’, as reported for donors_df() data frame.

Defining seed.number allows for reproducibility.

HLA antibodies

the function Abs_df() allows to generate a data frame with HLA antibodies from a candidates waiting list:

Abs_df(candidates = candidates_df(n=10),
       origin = 'PT',
       seed.number = 3)
#> # A tibble: 35 × 2
#>    ID    abs  
#>    <chr> <chr>
#>  1 K5    A25  
#>  2 K5    DR4  
#>  3 K5    A34  
#>  4 K5    B53  
#>  5 K5    B49  
#>  6 K5    DR4  
#>  7 K5    B54  
#>  8 K5    B57  
#>  9 K5    B44  
#> 10 K5    A30  
#> # … with 25 more rows
#> # ℹ Use `print(n = ...)` to see more rows
…
